<svg xmlns="http://www.w3.org/2000/svg" width="13" height="13" viewBox="0 0 13 13">
    <g fill="#FFF" fill-rule="evenodd">
        <path d="M2.828 2.828A5.163 5.163 0 0 1 6.499 1.3c2.868 0 5.2 2.333 5.2 5.2H13C13 2.916 10.084 0 6.5 0a6.454 6.454 0 0 0-4.59 1.91L.65.65v3.9h3.9L2.828 2.828zM10.172 10.173A5.162 5.162 0 0 1 6.5 11.7a5.206 5.206 0 0 1-5.2-5.2H0C0 10.085 2.915 13 6.5 13a6.454 6.454 0 0 0 4.59-1.91l1.26 1.26v-3.9h-3.9l1.722 1.723z"/>
    </g>
</svg>
