<svg xmlns="http://www.w3.org/2000/svg" width="60" height="60" viewBox="0 0 60 60">
    <g fill="none" fill-rule="evenodd">
        <circle cx="30" cy="30" r="29.25" stroke="#FFF" stroke-width="1.5"/>
        <path fill="#FFF" d="M27.987 41.337c.18-1.026.37-2.05.54-3.078.257-1.564.563-3.125.719-4.7.058-.584-.165-1.243-.413-1.8-.302-.678-.14-1.402.67-1.905.567-.353.98-.081 1.419.37.61.627.652 1.148.085 1.817-.201.238-.316.663-.272.975.366 2.595.774 5.184 1.185 7.771.031.194.194.367.432.794.2-.61.36-.976.44-1.36.666-3.262 1.321-6.528 1.973-9.795.223-1.116.46-1.29 1.505-.928 1.835.637 3.7 1.211 5.476 1.99 2.016.883 3.229 2.462 3.265 4.757.03 1.948-.002 3.896.031 5.843.014.868-.397 1.274-1.215 1.288-.746.013-1.492-.05-2.238-.05-7.694-.003-15.387-.003-23.08 0-.779 0-1.558.063-2.335.044-.768-.018-1.178-.401-1.167-1.23.026-2.011-.051-4.027.035-6.036.096-2.213 1.272-3.79 3.292-4.633 1.76-.736 3.577-1.337 5.38-1.966 1.1-.384 1.342-.202 1.573.961.65 3.269 1.31 6.536 1.978 9.801.074.36.23.704.347 1.056l.375.014M24.45 19.583l.258.1c-.018 1.547.446 2.957 1.383 4.164 1.005 1.296 2.326 1.976 4.045 1.862 2.078-.139 3.99-2.183 4.423-4.443.226-1.18.424-2.351-.284-3.483a12.609 12.609 0 0 1-1.048-2.143c-.32-.834-.943-1.258-1.588-.831-1.334.884-2.722.936-4.177.463-.744-.242-1.322-.037-1.615.65-.51 1.201-.935 2.439-1.397 3.66m-1.141.284c-.094-.67-.151-1.347-.288-2.008-.89-4.318 3.776-8.767 8.058-7.697 1.054.263 1.651.965 2.337 1.742.583.66 1.71.81 2.383 1.422.945.86.654 2.08.497 3.211-.087.626-.222 1.28-.128 1.889.54 3.493-1.296 7.172-4.219 8.327-2.711 1.072-5.77.06-7.39-2.476-.853-1.335-1.397-2.778-1.25-4.41"/>
    </g>
</svg>
