<?xml version="1.0" encoding="UTF-8"?>
<svg width="20px" height="20px" viewBox="0 0 20 20" version="1.1" xmlns="http://www.w3.org/2000/svg" xmlns:xlink="http://www.w3.org/1999/xlink">
    <!-- Generator: sketchtool 58 (101010) - https://sketch.com -->
    <title>3063C1B5-86BF-4051-BD7F-556A7E0542C0</title>
    <desc>Created with sketchtool.</desc>
    <g id="Symbols" stroke="none" stroke-width="1" fill="none" fill-rule="evenodd">
        <g id="smile_icon">
            <rect id="Rectangle" x="0" y="0" width="20" height="20"></rect>
            <path d="M8.87034834,7.45716132 C8.87304288,6.8976548 8.42177027,6.44286348 7.86346191,6.44274044 C7.31241229,6.44274044 6.85892515,6.89088707 6.85388094,7.44067268 C6.84871369,8.0019019 7.29494208,8.45657016 7.85509589,8.46050775 C8.41771029,8.46444534 8.86762957,8.01986714 8.87034834,7.45716132 M12.7605325,8.4608785 C13.3199481,8.46186129 13.7761419,8.00817743 13.7745467,7.45236239 C13.7730661,6.89482466 13.3166263,6.44101774 12.7593022,6.44285787 C12.2082525,6.44470923 11.7598096,6.89211757 11.7542733,7.44571771 C11.748737,8.00350154 12.2011168,8.4598925 12.7605325,8.4608785 M10.3573951,15.1574821 C11.2471452,15.1487456 11.9647769,15.0103148 12.6523894,14.7243476 C13.4590946,14.3887913 14.1529816,13.894255 14.7299904,13.2379084 C15.0402711,12.8848791 14.9473838,12.3804988 14.5407709,12.1837425 C14.2575567,12.0466652 13.963762,12.1187723 13.7231161,12.3830828 C12.9194867,13.2659637 11.9215936,13.762961 10.7305439,13.8214096 C9.32308519,13.8906865 8.14962878,13.3737552 7.20869833,12.3226655 C7.12614546,12.2305013 7.01443458,12.1490425 6.90001704,12.1036372 C6.62258527,11.9932617 6.30578403,12.1084361 6.14043223,12.3557658 C5.96609928,12.6162618 5.98787552,12.9272082 6.21031305,13.1805673 C7.34747573,14.4762796 8.78556883,15.1203212 10.3573951,15.1574821 M18.9999896,9.50384529 C18.9999896,14.2259967 15.1944272,18.0134633 10.4379795,17.999964 C5.75817924,17.9866385 1.95053588,14.1348169 2.0004859,9.40848185 C2.04982077,4.73936485 5.88243914,0.949806365 10.5949653,1.0005028 C15.2425318,1.05058399 19.0072378,4.8437109 18.9999896,9.50384529" id="Fill-1" fill="#B0B8C2"></path>
        </g>
    </g>
</svg>