<svg xmlns="http://www.w3.org/2000/svg" xmlns:xlink="http://www.w3.org/1999/xlink" width="79" height="76" viewBox="0 0 79 76">
    <defs>
        <path id="a" d="M.407.092h37.121v18.646H.407z"/>
        <linearGradient id="b" x1="5.345%" y1="37.702%" y2="62.616%">
            <stop offset="0%" stop-color="#FF77A2"/>
            <stop offset="100%" stop-color="#F66161"/>
        </linearGradient>
        <linearGradient id="d" x1="86.533%" x2="72.897%" y1="35.926%" y2="63.834%">
            <stop offset="0%" stop-color="#FFAEA3"/>
            <stop offset="100%" stop-color="#FF8E76"/>
        </linearGradient>
        <linearGradient id="e" x1="50%" x2="50%" y1="0%" y2="100%">
            <stop offset="0%" stop-color="#FBB649"/>
            <stop offset="100%" stop-color="#FF9023"/>
        </linearGradient>
        <linearGradient id="f" x1="50%" x2="50%" y1="1.481%" y2="99.764%">
            <stop offset="0%" stop-color="#5A95DC"/>
            <stop offset="99.952%" stop-color="#7C7ADE"/>
        </linearGradient>
        <linearGradient id="g" x1="50%" x2="50%" y1=".562%" y2="100%">
            <stop offset="0%" stop-color="#F7F9FF"/>
            <stop offset="0%" stop-color="#E6F2FF"/>
            <stop offset="100%" stop-color="#97C3FF"/>
        </linearGradient>
        <path id="h" d="M.1.173h21.572v19.095H.101z"/>
        <linearGradient id="i" x1="49.661%" x2="49.661%" y1=".339%" y2="98.777%">
            <stop offset="0%" stop-color="#FFB660"/>
            <stop offset="100%" stop-color="#FFEA91"/>
        </linearGradient>
    </defs>
    <g fill="none" fill-rule="evenodd">
        <g transform="translate(40.63 21.948)">
            <mask id="c" fill="#fff">
                <use xlink:href="#a"/>
            </mask>
            <path fill="url(#b)" d="M19.053 18.738c10.25-.047 18.522-8.395 18.475-18.646L.407.262c.047 10.252 8.395 18.523 18.646 18.476" mask="url(#c)"/>
        </g>
        <path fill="url(#d)" d="M18.882 0C8.63.047.359 8.396.406 18.646l37.122-.17C37.481 8.224 29.133-.048 18.882 0" transform="translate(40.63 3.564)"/>
        <path fill="#FFF" d="M59.706 21.617a2.059 2.059 0 0 0-1.532.655c-.417.435-.625 1.003-.622 1.705.002.46.102.898.299 1.318.197.42.472.738.824.956.351.219.72.326 1.106.325.563-.003 1.046-.232 1.45-.689.403-.456.603-1.075.599-1.856-.004-.75-.206-1.342-.61-1.773-.4-.43-.906-.644-1.514-.641"/>
        <path fill="#FFF" d="M62.761 25.847c-.292.587-.693 1.037-1.206 1.351a3.308 3.308 0 0 1-1.747.475c-1.112.005-2.02-.4-2.727-1.215-.705-.814-1.062-2.16-1.07-4.039-.01-2.1.37-3.629 1.142-4.586.673-.834 1.583-1.253 2.73-1.258.855-.004 1.556.233 2.105.71.548.476.878 1.137.991 1.981l-1.326.11c-.122-.523-.291-.903-.51-1.14a1.765 1.765 0 0 0-1.337-.563 1.828 1.828 0 0 0-1.117.36c-.419.309-.748.757-.988 1.346-.239.59-.361 1.428-.366 2.515.319-.49.71-.855 1.173-1.095.464-.239.95-.36 1.46-.362.889-.004 1.648.32 2.276.971.628.653.945 1.497.95 2.535a4.177 4.177 0 0 1-.433 1.904m-3.208-13.43c-5.363.024-9.69 4.39-9.665 9.752.025 5.363 4.392 9.69 9.754 9.665 5.362-.025 9.688-4.392 9.664-9.754-.025-5.362-4.392-9.688-9.753-9.664"/>
        <path fill="#DBE8EF" d="M44.705 18.247c.815-6.35 7.448-12.437 15.171-11.58-6.757 1.625-11.74 5.582-15.17 11.58"/>
        <path fill="url(#e)" d="M5.834 24.023c5.306 3.938 12.8 2.83 16.737-2.476L3.358 7.285c-3.938 5.306-2.83 12.8 2.476 16.738" transform="translate(-1 -2)"/>
        <g>
            <path fill="url(#f)" d="M24.9 49.572c13.69-.064 24.735-11.211 24.672-24.9L0 24.9c.063 13.689 11.212 24.735 24.9 24.672" transform="translate(11.964 26.097)"/>
            <path fill="url(#g)" d="M24.672 0C10.982.063-.063 11.211 0 24.9l49.572-.228C49.509 10.982 38.36-.063 24.672 0" transform="translate(11.964 26.097)"/>
            <path fill="#FFF" d="M40.976 55.853c-.39.784-.926 1.385-1.61 1.804-.685.42-1.463.63-2.334.635-1.485.006-2.698-.534-3.64-1.622-.943-1.088-1.42-2.885-1.431-5.394-.013-2.804.496-4.846 1.526-6.125.9-1.113 2.114-1.672 3.645-1.68 1.142-.005 2.079.311 2.81.948.733.637 1.175 1.519 1.325 2.647l-1.772.146c-.161-.698-.388-1.205-.68-1.52a2.359 2.359 0 0 0-1.785-.755 2.45 2.45 0 0 0-1.493.482c-.56.412-.998 1.011-1.318 1.798-.32.787-.483 1.906-.49 3.358.426-.655.949-1.142 1.568-1.462a4.228 4.228 0 0 1 1.948-.484c1.188-.006 2.201.427 3.04 1.298.84.87 1.262 1.998 1.268 3.384a5.58 5.58 0 0 1-.577 2.542M36.69 37.918c-7.16.033-12.938 5.864-12.906 13.025.034 7.16 5.865 12.938 13.025 12.905 7.16-.033 12.938-5.864 12.905-13.024-.033-7.16-5.864-12.939-13.024-12.906"/>
            <path fill="#DBE8EF" d="M16.864 45.704c1.088-8.478 9.946-16.608 20.26-15.464-9.024 2.17-15.678 7.455-20.26 15.464"/>
            <path fill="#FFF" d="M36.896 50.204a2.748 2.748 0 0 0-2.045.876c-.559.58-.836 1.339-.831 2.276.002.613.136 1.2.399 1.76s.63.985 1.1 1.277c.47.292.962.436 1.477.433.752-.003 1.397-.31 1.936-.92.538-.609.805-1.435.8-2.478-.005-1.003-.276-1.792-.813-2.367-.537-.575-1.211-.86-2.023-.857"/>
        </g>
        <g transform="translate(2.257 .279)">
            <mask id="j" fill="#fff">
                <use xlink:href="#h"/>
            </mask>
            <path fill="url(#i)" d="M16.838 2.53C11.533-1.406 4.038-.3.101 5.008l19.213 14.261c3.939-5.305 2.83-12.799-2.476-16.737" mask="url(#j)"/>
        </g>
        <path fill="#FFF" d="M69.306 22.211c0 5.41-4.386 9.796-9.795 9.796-5.41 0-9.796-4.386-9.796-9.796 0-5.41 4.386-9.795 9.796-9.795 5.41 0 9.795 4.386 9.795 9.795"/>
        <path fill="#F18D23" d="M56.544 24.062l1.247-.166c.143.707.386 1.216.73 1.527.344.312.763.468 1.258.468.586 0 1.082-.203 1.485-.61.405-.406.607-.91.607-1.51 0-.572-.187-1.044-.561-1.416-.375-.372-.85-.558-1.428-.558-.235 0-.528.046-.88.139l.14-1.095c.082.01.15.014.2.014a2.57 2.57 0 0 0 1.434-.416c.425-.277.637-.703.637-1.28 0-.458-.155-.836-.463-1.137-.31-.3-.71-.45-1.199-.45-.485 0-.889.152-1.212.457-.324.305-.531.762-.624 1.372l-1.247-.222c.153-.836.5-1.483 1.04-1.943.54-.46 1.212-.69 2.015-.69.554 0 1.064.12 1.531.358.467.237.823.562 1.07.973.247.41.37.847.37 1.309 0 .439-.117.838-.352 1.198-.236.36-.584.647-1.047.859.6.139 1.068.426 1.4.863.332.436.498.982.498 1.638 0 .886-.323 1.638-.97 2.254-.646.617-1.463.925-2.451.925-.891 0-1.632-.265-2.22-.796-.589-.532-.925-1.22-1.008-2.065"/>
    </g>
</svg>
