<svg xmlns="http://www.w3.org/2000/svg" xmlns:xlink="http://www.w3.org/1999/xlink" width="177" height="190" viewBox="0 0 177 190">
    <defs>
        <linearGradient id="b" x1="50%" x2="50%" y1="0%" y2="100%">
            <stop offset="0%" stop-color="#00ACA3"/>
            <stop offset="100%" stop-color="#029CCE"/>
        </linearGradient>
        <rect id="a" width="177" height="190" rx="5"/>
    </defs>
    <g fill="none" fill-rule="evenodd">
        <mask id="c" fill="#fff">
            <use xlink:href="#a"/>
        </mask>
        <use fill="url(#b)" xlink:href="#a"/>
        <circle cx="48.5" cy="18.5" r="69.5" fill="#D8D8D8" fill-opacity=".1" mask="url(#c)"/>
        <circle cx="48.5" cy="18.5" r="123.5" fill="#D8D8D8" fill-opacity=".1" mask="url(#c)"/>
    </g>
</svg>
