<svg xmlns="http://www.w3.org/2000/svg" xmlns:xlink="http://www.w3.org/1999/xlink" width="121" height="30" viewBox="0 0 121 30">
    <defs>
        <linearGradient id="a" x1="0%" y1="50%" y2="50%">
            <stop offset=".911%" stop-color="#FFF" stop-opacity="0"/>
            <stop offset="100%" stop-color="#40B6FF"/>
        </linearGradient>
        <path id="b" d="M0 .081h42.476v12.462H0z"/>
        <path id="d" d="M.105.06h97.28v13.791H.106z"/>
        <linearGradient id="e" x1="5.345%" y1="49.02%" y2="51.005%">
            <stop offset="0%" stop-color="#DA4272"/>
            <stop offset="100%" stop-color="#D73030"/>
        </linearGradient>
    </defs>
    <g fill="none" fill-rule="evenodd">
        <g transform="translate(79.2 4.5)">
            <rect width="21.6" height="3.6" fill="url(#a)" rx="1.8"/>
            <rect width="21.6" height="3.6" x="10.8" y="7.2" fill="url(#a)" rx="1.8"/>
            <rect width="21.6" height="3.6" x="19.8" y="14.4" fill="url(#a)" rx="1.8"/>
            <circle cx="26.1" cy="1.8" r="1.8" fill="#70AFEB"/>
        </g>
        <path fill="#FCFCFB" d="M54.77 9.2c.23.011.46.02.677-.084.328-.158.547-.392.53-.78-.017-.388-.259-.612-.6-.723-.2-.064-.417-.079-.627-.1-.652-.063-1.305-.119-1.957-.179-1.234-.112-2.467-.232-3.702-.336-.587-.05-1.07.282-1.126.74-.06.493.306.87.934.93 1.957.182 3.914.355 5.87.532M41.738 8.028c.667.03 1.112-.249 1.175-.734.064-.499-.295-.84-.99-.937-.104-.015-.21-.016-.317-.026l-3.172-.293c-.794-.073-1.586-.152-2.38-.215-.622-.049-1.108.287-1.15.772-.04.457.302.837.858.89 1.991.19 3.984.364 5.976.543M63.943 5.31c.042.05.082.05.122-.002.068.01.136.02.204.028l.128.008c.563.059 1.127.114 1.69.178 3.953.452 7.907.902 11.859 1.367.395.046.417-.055.29-.385-.418-1.079-1.21-1.823-2.167-2.394-2.815-1.678-5.975-2.208-9.142-2.706-.182-.03-.297.031-.405.173-.875 1.156-1.755 2.308-2.633 3.462-.084.11-.141.217.054.271m34.093 5.384c.062.492.4.855.604 1.28.573 1.202 1.181 2.387 1.775 3.578-2.397-.214-4.795-.42-7.191-.645-5.058-.476-10.115-.966-15.173-1.443-4.353-.41-8.707-.806-13.06-1.214-6.452-.605-12.903-1.215-19.354-1.822-.163-.084-.34-.056-.511-.061-1.692-.157-3.384-.312-5.076-.47-4.036-.38-8.072-.758-12.107-1.144-1.23-.118-2.459-.26-3.688-.391 3.303-1.529 6.606-3.056 9.907-4.589.165-.076.33-.12.506-.129.582.028 1.166.034 1.746.09 1.496.142 2.989.317 4.484.46 1.708.161 3.419.29 5.126.454 2.059.196 4.115.416 6.174.618 1.601.156 3.209.258 4.804.459 1.878.237 3.743.151 5.608-.072.36-.044.743-.092 1.127-.309-.34-.185-.643-.18-.941-.194-.21-.01-.436.01-.562-.219l2.844-3.76c-2.171-.27-4.267-.4-6.363-.525-.162-.097-.175-.156.04-.173.425-.034.8-.21 1.165-.415.903-.118 1.808-.036 2.702.045 1.87.17 3.743.273 5.613.427 1.705.14 3.378.492 5.024.983a21.425 21.425 0 0 1 6.402 3.152c.142.102.31.176.364.365.142.564.383.732.807.561.942.846 1.887 1.688 2.823 2.539.217.197.45.324.745.359.84.097 1.68.195 2.517.318 1.114.165 2.224.362 3.338.53 1.169.175 2.34.334 3.51.496 1.221.17 2.432.42 3.666.48.29.014.39.279.605.381"/>
        <g transform="translate(0 6.073)">
            <mask id="c" fill="#fff">
                <use xlink:href="#b"/>
            </mask>
            <path fill="#5A657C" d="M3.211 3.34L.445.696C.344.6.245.5.147.4.077.328-.048.25.02.146.1.023.242.11.357.126c.26.155.55.22.84.295 1.08.279 2.24.408 3.206.91 1.548.802 3.179.999 4.847 1.158 1.266.12 2.532.233 3.798.36 1.581.158 3.16.332 4.742.487 1.618.158 3.243.25 4.852.464 1.858.247 3.726.36 5.586.583 1.98.239 3.973.373 5.96.566 2.074.2 4.15.388 6.217.643.69.085 1.423-.047 2.07.323-.304.283-.338.907-.972.778-.06-.098-.152-.14-.264-.153-.912-.108-1.824-.22-2.736-.327-1.437-.169-2.875-.333-4.313-.503-1.858-.221-3.716-.45-5.575-.67-1.648-.194-3.298-.377-4.945-.577-1.857-.226-3.713-.468-5.57-.7-1.839-.23-3.68-.457-5.52-.686L7.17 2.4c.025.139.122.152.2.182l4.35 1.674c1.302.5 2.595 1.024 3.907 1.493 2.945 1.054 5.89 2.106 8.86 3.094 3.371 1.12 6.736 2.257 10.143 3.267.361.107.791.065 1.073.396l-.035.037c-1.38-.127-2.758-.298-4.136-.442-1.305-.136-2.61-.248-3.912-.428-1.157-.16-2.32-.287-3.48-.429-1.107-.135-2.21-.308-3.316-.427a93.487 93.487 0 0 1-3.85-.485c-.575-.086-1.151-.159-1.724-.246-1.156-.176-2.292-.513-3.481-.367-.108-.107-.216-.214-.387-.199l-.14-.221c-.092-.363-.087-.733-.082-1.104.01-.66-.256-.885-.902-.758-.159.032-.434.036-.367.268.07.244.255-.02.393-.013.07.005.14-.012.21-.008.192.014.348.08.373.3.032.27-.166.257-.344.278-.187.023-.398.003-.505.217L9.78 8.47c-.266-.366-.658-.561-1.038-.773l-.002-.002-.105-.092c-.047-.052-.088-.114-.144-.156a102.502 102.502 0 0 1-4.036-3.16c-.4-.327-.743-.748-1.244-.949" mask="url(#c)"/>
        </g>
        <path fill="#72809E" d="M42.476 11.988c-.648-.37-1.38-.238-2.07-.323-2.068-.255-4.144-.443-6.218-.644-1.987-.192-3.98-.327-5.96-.565-1.86-.223-3.728-.336-5.586-.583-1.609-.214-3.234-.306-4.852-.464-1.581-.155-3.16-.33-4.742-.488-1.266-.126-2.532-.24-3.798-.36-1.668-.158-3.299-.355-4.847-1.158-.966-.501-2.127-.63-3.205-.91-.291-.075-.582-.14-.84-.295 1.582.02 3.146.223 4.712.419.105.013.212.014.318.019 2.2.097 4.381.414 6.573.608.72.064 1.443.166 2.16.201 1.213.06 2.412.254 3.625.317 1.583.083 3.158.303 4.74.43.585.048 1.178.122 1.769.17 1.23.132 2.457.274 3.688.392 4.035.386 8.071.764 12.107 1.144 1.692.158 3.384.313 5.076.47.117.35.238.7.35 1.053.041.127.158.281.005.383-.112.075-.227-.052-.331-.112-.352-.201-.702-.405-1.054-.605-.171-.097-.365-.123-.465.064-.115.215.125.246.243.326.172.118.394.164.511.36-.177.225-.51.038-.69.26-.37-.447-.783-.408-1.22-.11"/>
        <path fill="#2F4A80" d="M58.716.647c2.095.125 4.19.255 6.362.525l-2.844 3.76c-.164.158-.36.105-.55.084-3.39-.388-6.782-.763-10.17-1.173-.783-.094-1.589-.067-2.344-.354 1.26-.393 2.523-.781 3.781-1.181.805-.256 1.604-.53 2.405-.796l.234-.015c.16.382.47.487.856.48 1.033-.022 1.033-.019.977-1.069.405-.216.843-.267 1.293-.26"/>
        <path fill="#C6C6C8" d="M49.17 3.489c.755.287 1.561.26 2.345.354 3.387.41 6.778.785 10.168 1.173.191.022.387.074.551-.084.126.23.352.208.561.219.3.015.601.009.942.194-.384.217-.766.265-1.127.309-1.865.223-3.73.309-5.608.072-1.595-.201-3.203-.303-4.804-.46-2.059-.2-4.115-.421-6.174-.617-1.707-.163-3.418-.293-5.125-.455-1.496-.142-2.99-.317-4.485-.46-.58-.055-1.164-.06-1.746-.089.088-.195.265-.147.417-.147 4.695-.005 9.39-.007 14.085-.01"/>
        <path fill="#EFF0F3" d="M80.832 5.592c-.424.17-.665.003-.807-.561.3.142.66.199.807.561"/>
        <path fill="#72809E" d="M72.084 15.368c.203-.013.445-.088.439-.33-.009-.305-.32-.268-.53-.29-.221-.024-.38.093-.358.34.022.255.22.282.449.28m-35.35-.38c-.244.098-.227.254-.077.444.678.857 1.35 1.72 2.035 2.571.108.134.226.398.454.211.211-.173.018-.359-.095-.503-.66-.848-1.33-1.69-1.998-2.534-.076-.097-.16-.191-.318-.19m3.168 2.385c.224.008.403-.098.584-.217.33-.215.374-.745.904-.763.143-.005.054-.23-.044-.345-.263-.31-.566-.595-.773-.939-.637-1.053-1.612-.618-2.056.141-.082.14-.258.307-.014.447.206.117.28-.072.353-.207.132-.24.3-.438.566-.53.205-.072.387-.043.512.15.132.202-.054.283-.161.384-.287.267-.565.534-.64.946-.082.45.311.932.769.933m48.762-.898c-.736-.07-1.471-.137-2.207-.212-1.51-.153-3.022-.311-4.533-.465-1.3-.133-2.6-.263-3.9-.394-1.53-.153-3.058-.308-4.587-.456-.22-.022-.496-.005-.417.303.059.227-.17.658.37.649.725-.012 1.449.06 2.172.09 1.856.075 3.71.198 5.565.263.935.033 1.875.036 2.81.1 1.568.106 3.138.181 4.727.122m-52.961 2.104c-.283-.33-.713-.288-1.074-.395-3.407-1.01-6.772-2.147-10.143-3.268-2.97-.987-5.915-2.04-8.86-3.093-1.312-.47-2.605-.993-3.907-1.493L7.37 8.655c-.079-.03-.175-.043-.2-.183l5.41.678c1.84.229 3.681.456 5.52.686 1.857.232 3.713.474 5.57.7 1.647.2 3.297.382 4.945.577 1.859.22 3.717.449 5.576.67 1.437.17 2.875.334 4.312.503.912.107 1.824.219 2.736.327.112.013.203.055.264.153-.099.074-.2.145-.296.223-.255.21-.224.724-.74.676-.093-.009-.077.173-.003.265.457.563.912 1.127 1.374 1.686.104.126.248.244.407.1.16-.145.043-.29-.06-.416-.267-.33-.528-.666-.806-.987-.305-.354-.27-.695.067-.972.349-.285.584-.007.793.246.248.3.479.613.733.907.127.147.247.443.493.263.255-.187.004-.377-.115-.532-.268-.35-.54-.7-.837-1.027-.121-.132-.127-.236-.063-.375.4-.127.812.221 1.21-.03l.702.904c.112.143.243.21.4.076.171-.147.063-.275-.044-.4-.09-.105-.177-.214-.265-.322.52-.058 1.015.09 1.517.188a.48.48 0 0 1-.088.4c-.118.152-.138.304.061.387.197.082.302-.07.352-.224.058-.182.076-.377.112-.566.44.038.88.067 1.319.115 1.456.16 2.911.33 4.367.49a1229.128 1229.128 0 0 0 8.003.857c1.194.122 2.389.24 3.584.354 1.283.123 2.565.247 3.849.359 1.292.112 2.586.208 3.908.313-.09-.178-.223-.319-.22-.456.013-.559-.364-.601-.768-.638-2.373-.217-4.747-.422-7.119-.659-2.967-.297-5.931-.63-8.899-.93-2.722-.277-5.447-.53-8.17-.793-.283-.58-.435-1.206-.624-1.82 6.451.608 12.902 1.218 19.354 1.823 4.353.408 8.707.804 13.06 1.214 5.058.477 10.115.967 15.173 1.443 2.396.225 4.794.43 7.191.645.24.36.532.689.66 1.114-.104.083-.227.086-.353.089-2.903.067-5.804-.088-8.706-.129-.457-.006-.908.044-1.42-.032.16.202.312.14.444.152.896.083 1.794.154 2.69.244 1.615.162 3.23.33 4.844.506 1.105.12 2.22.164 3.31.405.814 1.047 1.389 2.248 2.139 3.337.055.08.052.202.075.305-.123.01-.247.03-.37.03-6.687-.097-13.376.148-20.061-.205-2.58-.137-5.168.055-7.75-.195-1.93-.186-3.873-.08-5.813-.198-2.993-.182-5.995-.224-8.988-.464-1.248-.1-2.5-.057-3.755-.179-2.032-.196-4.081-.202-6.113-.447-1.079-.13-2.168-.09-3.256-.203a140.18 140.18 0 0 0-5.146-.428c-1.336-.088-2.661-.345-4.007-.297-.093-.231-.315-.074-.459-.151-.165-.581-.651-.937-.997-1.387-.582-.756-1.626-.574-2.004.32-.056.131-.175.302.051.405.176.08.255-.038.322-.176.119-.245.294-.439.546-.551.173-.078.35-.09.484.067.156.185.028.325-.1.454-.2.198-.427.374-.521.655l-.457-.016"/>
        <g transform="translate(11.664 15.696)">
            <mask id="f" fill="#fff">
                <use xlink:href="#d"/>
            </mask>
            <path fill="url(#e)" d="M2.071 1.37C1.485.84.736.559.105.097c1.189-.146 2.325.19 3.48.367.574.087 1.15.16 1.724.246 1.28.19 2.563.347 3.85.485 1.107.119 2.21.292 3.317.428 1.16.141 2.323.269 3.48.429 1.302.18 2.607.291 3.912.427 1.379.144 2.755.316 4.135.442.084.155.345.132.338.404-.012.448.269.726.682.815.444.097.77-.139 1.027-.487.108-.147.14-.38.398-.362.023.257.24.282.42.337.925.283 1.847.58 2.78.833 1.108.303 2.25.5 3.336.867 1.255.425 2.544.733 3.826.997 1.626.334 3.228.769 4.865 1.065 1.995.361 3.988.722 5.99 1.04 2.245.357 4.508.464 6.763.478 8.278.054 16.555.02 24.833.022 5.07 0 10.139.005 15.208.008.94 1.479 1.882 2.956 2.818 4.437.095.15.165.32-.003.477-.23-.008-.46-.024-.69-.024l-20.69-.009c.258-.254.757.077.888-.267.108-.282-.025-.655-.047-.987-.007-.106-.002-.212-.002-.318-.006-.85-.566-1.197-1.326-.815-.13.065-.354.107-.26.32.077.178.248.064.375.026.294-.088.673-.212.765.166.11.455-.382.291-.6.378-.391.155-.753.247-.742.803.012.607.489.547.835.693-9.83 0-19.66 0-29.49-.005-.365 0-.743.069-1.1-.09.642.04.733-.288.588-.828-.058-.214-.01-.457-.01-.687-.001-.303.009-.615-.315-.786-.4-.212-.792-.086-1.176.057-.102.038-.174.13-.115.254.053.114.154.143.266.106.083-.027.155-.09.238-.112.275-.069.58-.083.659.246.09.369-.29.251-.466.345-.03.016-.07.013-.104.017-.327.046-.647.123-.74.494-.085.346-.031.67.292.894-.457-.016-.915-.018-1.372-.05-1.632-.112-3.265-.235-4.897-.354-4.68-.538-9.309-1.36-13.861-2.584C18.824 9.292 13.638 7.38 8.645 4.941 6.4 3.845 4.23 2.621 2.07 1.371" mask="url(#f)"/>
        </g>
        <path fill="#E33826" d="M106.133 24.633c-5.07-.003-10.138-.008-15.208-.009-8.277-.001-16.555.032-24.833-.021-2.255-.015-4.518-.122-6.762-.478a282.075 282.075 0 0 1-5.991-1.04c-1.637-.297-3.24-.731-4.865-1.066-1.282-.263-2.571-.571-3.826-.997-1.085-.367-2.227-.564-3.336-.866-.933-.254-1.855-.55-2.78-.833-.18-.055-.397-.08-.42-.338l.727-.027c1.346-.048 2.671.21 4.007.297 1.716.113 3.437.252 5.146.428 1.088.112 2.177.072 3.256.203 2.032.245 4.081.251 6.112.447 1.256.122 2.508.078 3.757.179 2.992.24 5.994.282 8.987.464 1.94.118 3.883.012 5.813.198 2.582.25 5.17.058 7.75.195 6.685.353 13.374.108 20.061.204.124.002.247-.019.37-.029.497.391.684.997 1.03 1.493.36.515.672 1.063 1.005 1.596"/>
        <path fill="#5A657C" d="M101.883 17.902c-1.09-.241-2.204-.285-3.309-.405-1.614-.176-3.229-.344-4.844-.506-.896-.09-1.794-.16-2.69-.244-.132-.012-.284.05-.443-.152.51.076.962.026 1.419.032 2.902.041 5.803.196 8.706.129.126-.003.249-.006.353-.089.406.323.582.795.808 1.235"/>
        <path fill="#2F4A80" d="M64.269 5.337l-.204-.028-.122.002c-.195-.055-.138-.162-.054-.271.878-1.154 1.758-2.306 2.634-3.462.107-.142.222-.202.404-.173 3.167.498 6.328 1.028 9.142 2.706.958.571 1.75 1.315 2.166 2.394.128.33.106.431-.29.385-3.951-.465-7.905-.915-11.859-1.367-.562-.064-1.126-.119-1.689-.178l-.128-.008"/>
        <path fill="#333349" d="M41.737 8.028c-1.992-.18-3.985-.354-5.976-.543-.556-.053-.898-.433-.858-.89.042-.485.528-.82 1.15-.772.794.063 1.587.142 2.38.215l3.172.293c.106.01.213.011.318.026.694.097 1.053.438.99.937-.063.485-.509.763-1.176.734M54.77 9.2c-1.957-.177-3.914-.35-5.87-.533-.63-.059-.994-.436-.935-.928.056-.46.539-.79 1.126-.74 1.235.103 2.468.223 3.702.336.652.06 1.305.115 1.957.178.21.021.427.036.626.1.342.111.584.335.6.724.018.387-.2.621-.53.78-.216.103-.446.094-.676.083"/>
        <path fill="#72809E" d="M45.637 10.429c.189.613.342 1.238.623 1.82l.147.987c-.036.19-.054.384-.112.566-.05.154-.155.306-.352.224-.2-.083-.178-.235-.06-.386a.48.48 0 0 0 .087-.4c.077-.361-.066-.597-.393-.76-.404-.2-.795-.428-1.192-.644-.117-.195-.34-.24-.511-.359-.118-.08-.358-.11-.243-.326.1-.187.294-.161.465-.064.352.2.702.404 1.054.605.104.06.219.187.331.112.153-.102.037-.256-.004-.383-.113-.352-.234-.702-.352-1.053.173.005.35-.023.512.06"/>
        <path fill="#C6C6C8" d="M63.943 5.311l.122-.001c-.04.05-.08.051-.122.001M64.269 5.337l.128.008-.128-.008"/>
        <path fill="#72809E" d="M44.453 13.051c.088.108.174.217.265.322.107.125.215.253.043.4-.156.133-.287.067-.399-.076l-.703-.904c-.209-.25-.352-.607-.77-.543-.312.049-.432.275-.439.573-.064.14-.059.243.062.375.298.326.57.676.838 1.027.12.155.37.345.115.532-.246.18-.366-.116-.493-.263-.254-.294-.485-.608-.733-.907-.209-.253-.444-.531-.793-.246-.337.277-.372.618-.067.972.278.32.539.657.806.987.103.127.22.27.06.416-.159.144-.303.026-.407-.1-.462-.559-.918-1.123-1.374-1.686-.074-.092-.09-.274.002-.265.517.048.486-.466.742-.676.095-.078.196-.15.295-.223.634.128.668-.495.973-.779.437-.298.85-.337 1.22.11l.757.954"/>
        <path fill="#DA3E61" d="M38.839 18.958c-.242.01-.485.018-.727.027-.257-.017-.29.216-.398.362-.256.349-.583.584-1.027.488-.413-.09-.694-.368-.682-.816.007-.272-.254-.248-.338-.403l.036-.038.458.016c.103.07.205.142.308.214.055.263.11.56.45.545.305-.014.515-.204.536-.54l.113-.032.812.026c.144.077.366-.08.459.151"/>
        <path fill="#5A657C" d="M10.018 14.552c.107-.214.318-.195.506-.217.177-.021.375-.008.343-.28-.025-.22-.181-.285-.372-.298-.07-.005-.141.012-.211.008-.138-.008-.323.256-.393.012-.067-.231.208-.235.367-.267.645-.127.912.098.902.758-.005.37-.01.74.082 1.104-.161-.003-.353.052-.377-.204.025-.62-.042-.668-.63-.452l-.118.045-.1-.21"/>
        <path fill="#B68E30" d="M8.74 13.769l-.105-.092.105.092"/>
        <path fill="#5A657C" d="M44.453 13.051l-.758-.953c.18-.223.513-.036.69-.261.397.215.788.443 1.192.644.327.162.47.398.393.758-.501-.097-.996-.246-1.517-.188M46.407 13.236l-.147-.987c2.724.262 5.449.515 8.171.791 2.968.3 5.932.634 8.9.931 2.37.238 4.745.442 7.118.659.404.037.78.079.768.638-.003.137.13.278.22.456-1.322-.105-2.616-.202-3.908-.313-1.284-.111-2.566-.236-3.85-.359a589 589 0 0 1-7.321-.747 1194.44 1194.44 0 0 1-4.265-.464c-1.456-.16-2.911-.33-4.367-.49-.439-.048-.88-.077-1.32-.115M88.665 16.474c-1.59.06-3.159-.016-4.727-.123-.936-.063-1.874-.066-2.81-.099-1.856-.065-3.71-.188-5.565-.263-.723-.03-1.447-.102-2.172-.09-.54.009-.311-.422-.37-.649-.08-.308.198-.325.417-.303 1.53.148 3.058.303 4.587.456 1.3.131 2.6.261 3.9.394 1.511.154 3.022.312 4.533.466.735.074 1.471.14 2.207.211"/>
        <path fill="#72809E" d="M40.67 16.214c-.002-.266-.096-.496-.362-.576-.182-.054-.704.53-.717.775-.015.282.091.53.396.517.415-.02.585-.345.682-.716m-.766 1.158c-.458 0-.85-.483-.769-.933.075-.412.353-.68.64-.947.107-.1.293-.181.161-.383-.125-.193-.307-.222-.512-.15-.266.092-.434.29-.566.53-.074.135-.147.324-.353.206-.244-.14-.068-.306.014-.446.444-.759 1.419-1.194 2.056-.14.207.343.51.628.773.938.098.115.187.34.044.345-.53.018-.575.548-.904.764-.18.118-.36.224-.584.216M38.38 18.807l-.812-.026c.05-.264 0-.506-.253-.627-.275-.131-.399.136-.552.283-.085.081-.135.2-.2.3l-.094.07c-.103-.07-.205-.142-.308-.213.094-.281.321-.457.52-.655.13-.129.257-.269.101-.454-.134-.158-.31-.145-.484-.067a1.102 1.102 0 0 0-.546.55c-.067.139-.146.256-.322.177-.226-.103-.107-.274-.051-.406.378-.893 1.422-1.075 2.004-.319.346.45.832.806.997 1.387M36.735 14.987c.158-.001.242.093.318.19.668.843 1.337 1.686 1.999 2.534.112.144.305.33.094.503-.228.187-.346-.077-.454-.21-.685-.853-1.357-1.715-2.035-2.572-.15-.19-.167-.346.078-.445"/>
        <path fill="#5A657C" d="M72.084 15.368c-.228.002-.427-.025-.45-.28-.02-.247.138-.364.36-.34.209.022.52-.015.529.29.006.242-.236.317-.44.33"/>
        <path fill="#72809E" d="M42.45 12.823c.007-.298.127-.524.439-.573.418-.064.561.293.77.543-.397.251-.809-.097-1.209.03"/>
        <path fill="#D93B58" d="M56.502 29.118c.266-.022.522-.074.549-.426.018-.24-.09-.371-.338-.359-.304.016-.574.108-.61.458-.026.254.172.316.399.327m.363.3l-.884-.001c-.323-.224-.377-.548-.291-.893.092-.371.412-.448.739-.494.035-.005.075-.002.104-.018.175-.094.555.024.466-.345-.08-.329-.384-.314-.659-.245-.083.021-.155.084-.238.112-.112.037-.212.008-.266-.106-.06-.125.013-.217.115-.255.384-.142.775-.269 1.176-.057.324.172.314.483.315.787 0 .23-.048.472.01.686.145.54.054.868-.587.829"/>
        <path fill="#D8333B" d="M87.537 29.114c.257-.049.54-.107.555-.476.013-.316-.217-.313-.433-.303-.304.015-.572.119-.593.465-.018.292.225.306.47.314m.032.4l-.114-.002c-.346-.145-.823-.085-.835-.692-.01-.557.35-.649.742-.804.218-.086.71.077.6-.378-.092-.377-.471-.254-.765-.165-.127.038-.298.151-.376-.026-.093-.213.13-.255.26-.32.76-.383 1.32-.036 1.327.814 0 .106-.005.213.002.318.023.333.155.706.047.987-.131.344-.63.014-.888.268"/>
        <path fill="#DA3E61" d="M36.469 18.808l.094-.07.892.075c-.021.336-.231.526-.536.54-.34.016-.395-.283-.45-.545"/>
        <path fill="#72809E" d="M37.455 18.813l-.892-.075c.066-.101.115-.22.2-.3.153-.148.277-.415.552-.284.253.12.303.363.253.627l-.113.032"/>
        <path fill="#5A657C" d="M10.687 15.187c-.073-.232-.409-.211-.453-.47.59-.217.656-.17.63.451l-.177.019"/>
        <path fill="#72809E" d="M40.67 16.214c-.098.37-.268.696-.683.716-.305.014-.411-.235-.396-.517.013-.245.535-.83.717-.775.266.08.36.31.361.576"/>
        <path fill="#D93B57" d="M56.502 29.118c-.227-.011-.425-.073-.399-.327.036-.35.306-.442.61-.458.248-.012.356.118.338.359-.027.352-.283.404-.549.426"/>
        <path fill="#D8333A" d="M87.537 29.114c-.246-.008-.49-.022-.471-.314.02-.346.289-.45.593-.465.216-.01.446-.013.433.303-.016.37-.298.427-.555.476"/>
        <path fill="#2F4A80" d="M48.872 3.488L58.418.647l6.66.525-2.844 3.76z"/>
        <path fill="#72809E" d="M34.9 17.877l.397-5.304 9.162.666 3.5.81v2.446l-.593 1.382-10.897.739z"/>
        <path fill="#5A657C" d="M39.59 11.5l10.521 1.073v1.199L39.59 12.385z"/>
    </g>
</svg>
